{
	"info": {
		"_postman_id": "c846db24-c20e-4541-ac7a-faf29235ec88",
		"name": "Mock API",
		"schema": "https://schema.getpostman.com/json/collection/v2.1.0/collection.json",
		"_exporter_id": "23665335"
	},
	"item": [
		{
			"name": "Get Echo",
			"request": {
				"method": "GET",
				"header": [],
				"url": {
					"raw": "https://postman-echo.com/get?test=123",
					"protocol": "https",
					"host": [
						"postman-echo",
						"com"
					],
					"path": [
						"get"
					],
					"query": [
						{
							"key": "test",
							"value": "123"
						}
					]
				}
			},
			"response": [
				{
					"name": "Example1",
					"originalRequest": {
						"method": "GET",
						"header": [],
						"url": {
							"raw": "https://postman-echo.com/get?test=123",
							"protocol": "https",
							"host": [
								"postman-echo",
								"com"
							],
							"path": [
								"get"
							],
							"query": [
								{
									"key": "test",
									"value": "123"
								}
							]
						}
					},
					"status": "OK",
					"code": 200,
					"_postman_previewlanguage": "json",
					"header": [
						{
							"key": "Date",
							"value": "Mon, 10 Oct 2022 08:40:08 GMT"
						},
						{
							"key": "Content-Type",
							"value": "application/json; charset=utf-8"
						},
						{
							"key": "Content-Length",
							"value": "468"
						},
						{
							"key": "Connection",
							"value": "keep-alive"
						},
						{
							"key": "ETag",
							"value": "W/\"1d4-MwYi3pw3ivoWTVCIOdnwz5L2tR8\""
						},
						{
							"key": "Vary",
							"value": "Accept-Encoding"
						},
						{
							"key": "set-cookie",
							"value": "sails.sid=s%3AYkJLpXaUoVmSOfmnXT7UhpEQbmWWi-Tm.3TIxmd5Gj9soaKdMIju%2B3VdkDe0FMy0r5tjGOp9HZmQ; Path=/; HttpOnly"
						}
					],
					"cookie": [],
					"body": "{\n    \"args\": {\n        \"test\": \"123\"\n    },\n    \"headers\": {\n        \"x-forwarded-proto\": \"https\",\n        \"x-forwarded-port\": \"443\",\n        \"host\": \"postman-echo.com\",\n        \"x-amzn-trace-id\": \"Root=1-6343da68-512bc16b0940b01712076438\",\n        \"user-agent\": \"PostmanRuntime/7.29.2\",\n        \"accept\": \"*/*\",\n        \"postman-token\": \"15ea6ffb-f330-466c-85e0-8073d0a14d7a\",\n        \"accept-encoding\": \"gzip, deflate, br\",\n        \"cookie\": \"sails.sid=s%3ATdTJi8O9loHkpppVOVgg_Jqgbzh5WdXb.YNIcgpOJEkACCnbdNGt16XyUVlMYB8sum6DVi1iWrJs\"\n    },\n    \"url\": \"https://postman-echo.com/get?test=123\"\n}"
				}
			]
		},
		{
			"name": "Get Echo Users",
			"request": {
				"method": "GET",
				"header": []
			},
			"response": [
				{
					"name": "Example2",
					"originalRequest": {
						"method": "GET",
						"header": [],
						"url": {
							"raw": "https://postman-echo.com/getUsers",
							"protocol": "https",
							"host": [
								"postman-echo",
								"com"
							],
							"path": [
								"getUsers"
							]
						}
					},
					"status": "Not Found",
					"code": 404,
					"_postman_previewlanguage": "plain",
					"header": [
						{
							"key": "Date",
							"value": "Mon, 10 Oct 2022 08:43:21 GMT"
						},
						{
							"key": "Transfer-Encoding",
							"value": "chunked"
						},
						{
							"key": "Connection",
							"value": "keep-alive"
						},
						{
							"key": "set-cookie",
							"value": "sails.sid=s%3A-akcsRRqr-gHQ221QYJ_wuwuNLxZRCCm.hWD%2BAWZ7jmzZdUdx8lJy1dG4MpurWiNSYLVIHdDMx74; Path=/; HttpOnly"
						}
					],
					"cookie": [],
					"body": "{\r\n    \"name\": \"{{$randomFullName}}\",\r\n    \"userName\": \"{{randomUserName}}\",\r\n    \"location\": \"{{randomCity}}\",\r\n    \"company\": \"{{$randomCompanyName}}\",\r\n    \"jobTitle\": \"{{$randomJobTitle}}\",\r\n    \"updatedAt\": \"{{$timestamp}}\"\r\n    }"
				}
			]
		}
	]
}